[
	{
		"x":420,
		"y":45,
		"width":290,
		"height":200,
		"class":"link",
		"data":
			{
				"url": "https://www.brookbyfarm.com/"
			}
	},
  {
		"x":420,
		"y":260,
		"width":290,
		"height":420,
		"class":"link",
		"data":
			{
				"url": "http://www.harvestmoonfarmandorchard.com/"
			}
	},
  {
		"x":420,
		"y":720,
		"width":290,
		"height":200,
		"class":"link",
		"data":
			{
				"url": "http://hackettfarmsupply.com/"
			}
	}
]
