[
	{
		"x":55,
		"y":45,
		"width":660,
		"height":400,
		"class":"link",
		"data":
			{
				"url": "http://rocklandartcenter.org/"
			}
	},
  {
		"x":55,
		"y":490,
		"width":320,
		"height":420,
		"class":"link",
		"data":
			{
				"url": "http://www.hvdentalarts.com/"
			}
	},
  {
		"x":400,
		"y":490,
		"width":320,
		"height":200,
		"class":"link",
		"data":
			{
				"url": "http://millstreetloft.org/"
			}
	}
]
